a.vcd
$date
     Jul 12, 2006       15:05:19
$end

$version
              SystemC 2.1.v1 --- Apr 10 2006 16:30:59
$end

$timescale
     1 ps
$end

$scope module SystemC $end
$var wire    1  aaa  clk       $end
$var wire    1  aab  in       $end
$var wire    1  aac  out       $end
$upscope $end
$enddefinitions  $end

$comment
All initial values are dumped below at time 0 sec = 0 timescale units.
$end

$dumpvars
0aaa
0aab
0aac
$end

#1000
1aaa

#2000
0aaa
1aab

#3000
1aaa

#4000
0aaa

#5000
1aaa

#6000
0aaa
0aab

#7000
1aaa

#8000
0aaa
1aab

#9000
1aaa

#10000
0aaa

#11000
1aaa

#12000
0aaa
0aab

#13000
1aaa

#14000
0aaa

#15000
1aaa

#16000
0aaa

#17000
1aaa

#18000
0aaa

#19000
1aaa
1aac

#20000
0aaa

#21000
1aaa

#22000
0aaa

#23000
1aaa
0aac

#24000
0aaa

#25000
1aaa
1aac

#26000
0aaa

#27000
1aaa

#28000
0aaa

#29000
1aaa
0aac

